Práctica/Guía 5/Verilog/tp5ej4/c/d_pr_ps_tb.vcd
$date
	Wed May 22 16:32:30 2024
$end
$version
	Icarus Verilog
$end
$timescale
	1ps
$end
$scope module d_pr_ps_tb $end
$var wire 1 ! q $end
$var parameter 32 " DURATION $end
$var reg 1 # clk $end
$var reg 1 $ d $end
$var reg 1 % en $end
$var reg 1 & pr $end
$var reg 1 ' ps $end
$scope module UUT $end
$var wire 1 # clk $end
$var wire 1 $ d $end
$var wire 1 % en $end
$var wire 1 & pr $end
$var wire 1 ' ps $end
$var wire 2 ( prps [1:0] $end
$var reg 1 ! q $end
$upscope $end
$upscope $end
$enddefinitions $end
$comment Show the parameter values. $end
$dumpall
b1010 "
$end
#0
$dumpvars
b0 (
0'
0&
0%
0$
0#
x!
$end
#300000
1$
#500000
1#
#600000
0$
#900000
1$
#1000000
0#
#1200000
0$
#1500000
1$
1#
#1700000
b10 (
1&
#1800000
0$
b0 (
0&
#2000000
0#
#2100000
1$
#2400000
0$
#2500000
1#
#2700000
1$
b1 (
1'
#2800000
b0 (
0'
#3000000
0$
0#
#3300000
1$
#3400000
b10 (
1&
#3500000
1#
#3600000
0$
b0 (
0&
#3900000
1$
#4000000
0#
#4200000
0$
#4500000
1$
1#
#4800000
0$
#5000000
0#
#5100000
1$
b10 (
1&
#5400000
0$
0&
b1 (
1'
#5500000
1#
#5600000
b0 (
0'
#5700000
1$
#6000000
0$
0#
#6300000
1$
#6500000
1#
#6600000
0$
#6800000
b10 (
1&
#6900000
1$
#7000000
0#
#7200000
0$
b0 (
0&
#7500000
1!
1$
1#
1%
#7800000
0$
#8000000
0#
#8100000
1$
b1 (
1'
#8400000
0$
b0 (
0'
#8500000
0!
1#
b10 (
1&
#8700000
1$
#9000000
0$
0#
b0 (
0&
#9300000
1$
#9500000
1!
1#
#9600000
0$
#9900000
1$
#10000000
0#
#10200000
0!
0$
b10 (
1&
#10500000
1!
1$
1#
#10800000
0$
0&
b1 (
1'
#11000000
0#
#11100000
1$
#11200000
b0 (
0'
#11400000
0$
#11500000
0!
1#
#11700000
1$
#11900000
b10 (
1&
#12000000
0$
0#
#12300000
1$
#12500000
1!
1#
#12600000
0$
b0 (
0&
#12900000
1$
#13000000
0#
#13200000
0$
#13500000
1$
1#
b1 (
1'
#13600000
0!
b11 (
1&
#13800000
0$
#14000000
0#
b10 (
0'
#14100000
1$
#14400000
0$
b0 (
0&
#14500000
1#
#14700000
1$
#15000000
0$
0#
#15300000
1$
b10 (
1&
#15500000
1!
1#
#15600000
0$
#15900000
1$
#16000000
0#
#16200000
0$
0&
b1 (
1'
#16500000
1$
1#
#16800000
0$
b0 (
0'
#17000000
0!
0#
b10 (
1&
#17100000
1$
#17400000
0$
#17500000
1#
#17700000
1$
#18000000
0$
0#
b0 (
0&
#18300000
1$
#18500000
1!
1#
#18600000
0$
#18700000
0!
b10 (
1&
#18900000
1$
b11 (
1'
#19000000
0#
#19200000
0$
#19500000
1!
1$
1#
#19600000
b10 (
0'
#19800000
0$
b0 (
0&
#20000000
0#
#20100000
1$
#20400000
0!
0$
b10 (
1&
#20500000
1#
#20700000
1$
#21000000
0$
0#
#21300000
1$
#21500000
1!
1#
#21600000
0$
0&
b1 (
1'
#21900000
1$
#22000000
0#
#22100000
0!
b11 (
1&
#22200000
0$
#22400000
b10 (
0'
#22500000
1!
1$
1#
#22800000
0$
#23000000
0#
#23100000
1$
#23400000
0$
b0 (
0&
#23500000
0!
1#
